%YAML 1.1
%TAG !u! tag:unity3d.com,2011:
--- !u!1 &2727704783163494193
GameObject:
  m_ObjectHideFlags: 0
  m_CorrespondingSourceObject: {fileID: 0}
  m_PrefabInstance: {fileID: 0}
  m_PrefabAsset: {fileID: 0}
  serializedVersion: 6
  m_Component:
  - component: {fileID: 2982657685248973851}
  - component: {fileID: 6123764429835638628}
  m_Layer: 31
  m_Name: Snow Mountains
  m_TagString: Untagged
  m_Icon: {fileID: 0}
  m_NavMeshLayer: 0
  m_StaticEditorFlags: 0
  m_IsActive: 1
--- !u!4 &2982657685248973851
Transform:
  m_ObjectHideFlags: 0
  m_CorrespondingSourceObject: {fileID: 0}
  m_PrefabInstance: {fileID: 0}
  m_PrefabAsset: {fileID: 0}
  m_GameObject: {fileID: 2727704783163494193}
  m_LocalRotation: {x: 0, y: 0, z: 0, w: 1}
  m_LocalPosition: {x: 0, y: 0, z: 0}
  m_LocalScale: {x: 1, y: 1, z: 1}
  m_Children:
  - {fileID: 4410842248430221522}
  m_Father: {fileID: 0}
  m_RootOrder: 0
  m_LocalEulerAnglesHint: {x: 0, y: 0, z: 0}
--- !u!156049354 &6123764429835638628
Grid:
  m_ObjectHideFlags: 0
  m_CorrespondingSourceObject: {fileID: 0}
  m_PrefabInstance: {fileID: 0}
  m_PrefabAsset: {fileID: 0}
  m_GameObject: {fileID: 2727704783163494193}
  m_Enabled: 1
  m_CellSize: {x: 1, y: 1, z: 0}
  m_CellGap: {x: 0, y: 0, z: 0}
  m_CellLayout: 0
  m_CellSwizzle: 0
--- !u!1 &5032129711650427306
GameObject:
  m_ObjectHideFlags: 0
  m_CorrespondingSourceObject: {fileID: 0}
  m_PrefabInstance: {fileID: 0}
  m_PrefabAsset: {fileID: 0}
  serializedVersion: 6
  m_Component:
  - component: {fileID: 4410842248430221522}
  - component: {fileID: 3021986186755425657}
  - component: {fileID: 8621029489669528555}
  m_Layer: 31
  m_Name: Layer1
  m_TagString: Untagged
  m_Icon: {fileID: 0}
  m_NavMeshLayer: 0
  m_StaticEditorFlags: 0
  m_IsActive: 1
--- !u!4 &4410842248430221522
Transform:
  m_ObjectHideFlags: 0
  m_CorrespondingSourceObject: {fileID: 0}
  m_PrefabInstance: {fileID: 0}
  m_PrefabAsset: {fileID: 0}
  m_GameObject: {fileID: 5032129711650427306}
  m_LocalRotation: {x: -0, y: -0, z: -0, w: 1}
  m_LocalPosition: {x: 0, y: 0, z: 0}
  m_LocalScale: {x: 1, y: 1, z: 1}
  m_Children: []
  m_Father: {fileID: 2982657685248973851}
  m_RootOrder: 0
  m_LocalEulerAnglesHint: {x: 0, y: 0, z: 0}
--- !u!1839735485 &3021986186755425657
Tilemap:
  m_ObjectHideFlags: 0
  m_CorrespondingSourceObject: {fileID: 0}
  m_PrefabInstance: {fileID: 0}
  m_PrefabAsset: {fileID: 0}
  m_GameObject: {fileID: 5032129711650427306}
  m_Enabled: 1
  m_Tiles:
  - first: {x: 1, y: -6, z: 0}
    second:
      serializedVersion: 2
      m_TileIndex: 30
      m_TileSpriteIndex: 28
      m_TileMatrixIndex: 0
      m_TileColorIndex: 0
      m_TileObjectToInstantiateIndex: 65535
      m_AllTileFlags: 1073741825
  - first: {x: 2, y: -6, z: 0}
    second:
      serializedVersion: 2
      m_TileIndex: 31
      m_TileSpriteIndex: 29
      m_TileMatrixIndex: 0
      m_TileColorIndex: 0
      m_TileObjectToInstantiateIndex: 65535
      m_AllTileFlags: 1073741825
  - first: {x: 3, y: -6, z: 0}
    second:
      serializedVersion: 2
      m_TileIndex: 32
      m_TileSpriteIndex: 30
      m_TileMatrixIndex: 0
      m_TileColorIndex: 0
      m_TileObjectToInstantiateIndex: 65535
      m_AllTileFlags: 1073741825
  - first: {x: 4, y: -6, z: 0}
    second:
      serializedVersion: 2
      m_TileIndex: 33
      m_TileSpriteIndex: 31
      m_TileMatrixIndex: 0
      m_TileColorIndex: 0
      m_TileObjectToInstantiateIndex: 65535
      m_AllTileFlags: 1073741825
  - first: {x: 5, y: -6, z: 0}
    second:
      serializedVersion: 2
      m_TileIndex: 34
      m_TileSpriteIndex: 32
      m_TileMatrixIndex: 0
      m_TileColorIndex: 0
      m_TileObjectToInstantiateIndex: 65535
      m_AllTileFlags: 1073741825
  - first: {x: 6, y: -6, z: 0}
    second:
      serializedVersion: 2
      m_TileIndex: 35
      m_TileSpriteIndex: 33
      m_TileMatrixIndex: 0
      m_TileColorIndex: 0
      m_TileObjectToInstantiateIndex: 65535
      m_AllTileFlags: 1073741825
  - first: {x: 1, y: -5, z: 0}
    second:
      serializedVersion: 2
      m_TileIndex: 24
      m_TileSpriteIndex: 23
      m_TileMatrixIndex: 0
      m_TileColorIndex: 0
      m_TileObjectToInstantiateIndex: 65535
      m_AllTileFlags: 1073741825
  - first: {x: 2, y: -5, z: 0}
    second:
      serializedVersion: 2
      m_TileIndex: 25
      m_TileSpriteIndex: 0
      m_TileMatrixIndex: 0
      m_TileColorIndex: 0
      m_TileObjectToInstantiateIndex: 65535
      m_AllTileFlags: 1073741825
  - first: {x: 3, y: -5, z: 0}
    second:
      serializedVersion: 2
      m_TileIndex: 26
      m_TileSpriteIndex: 24
      m_TileMatrixIndex: 0
      m_TileColorIndex: 0
      m_TileObjectToInstantiateIndex: 65535
      m_AllTileFlags: 1073741825
  - first: {x: 4, y: -5, z: 0}
    second:
      serializedVersion: 2
      m_TileIndex: 27
      m_TileSpriteIndex: 25
      m_TileMatrixIndex: 0
      m_TileColorIndex: 0
      m_TileObjectToInstantiateIndex: 65535
      m_AllTileFlags: 1073741825
  - first: {x: 5, y: -5, z: 0}
    second:
      serializedVersion: 2
      m_TileIndex: 28
      m_TileSpriteIndex: 26
      m_TileMatrixIndex: 0
      m_TileColorIndex: 0
      m_TileObjectToInstantiateIndex: 65535
      m_AllTileFlags: 1073741825
  - first: {x: 6, y: -5, z: 0}
    second:
      serializedVersion: 2
      m_TileIndex: 29
      m_TileSpriteIndex: 27
      m_TileMatrixIndex: 0
      m_TileColorIndex: 0
      m_TileObjectToInstantiateIndex: 65535
      m_AllTileFlags: 1073741825
  - first: {x: 1, y: -4, z: 0}
    second:
      serializedVersion: 2
      m_TileIndex: 19
      m_TileSpriteIndex: 18
      m_TileMatrixIndex: 0
      m_TileColorIndex: 0
      m_TileObjectToInstantiateIndex: 65535
      m_AllTileFlags: 1073741825
  - first: {x: 2, y: -4, z: 0}
    second:
      serializedVersion: 2
      m_TileIndex: 20
      m_TileSpriteIndex: 19
      m_TileMatrixIndex: 0
      m_TileColorIndex: 0
      m_TileObjectToInstantiateIndex: 65535
      m_AllTileFlags: 1073741825
  - first: {x: 3, y: -4, z: 0}
    second:
      serializedVersion: 2
      m_TileIndex: 21
      m_TileSpriteIndex: 20
      m_TileMatrixIndex: 0
      m_TileColorIndex: 0
      m_TileObjectToInstantiateIndex: 65535
      m_AllTileFlags: 1073741825
  - first: {x: 5, y: -4, z: 0}
    second:
      serializedVersion: 2
      m_TileIndex: 22
      m_TileSpriteIndex: 21
      m_TileMatrixIndex: 0
      m_TileColorIndex: 0
      m_TileObjectToInstantiateIndex: 65535
      m_AllTileFlags: 1073741825
  - first: {x: 6, y: -4, z: 0}
    second:
      serializedVersion: 2
      m_TileIndex: 23
      m_TileSpriteIndex: 22
      m_TileMatrixIndex: 0
      m_TileColorIndex: 0
      m_TileObjectToInstantiateIndex: 65535
      m_AllTileFlags: 1073741825
  - first: {x: 1, y: -3, z: 0}
    second:
      serializedVersion: 2
      m_TileIndex: 14
      m_TileSpriteIndex: 14
      m_TileMatrixIndex: 0
      m_TileColorIndex: 0
      m_TileObjectToInstantiateIndex: 65535
      m_AllTileFlags: 1073741825
  - first: {x: 2, y: -3, z: 0}
    second:
      serializedVersion: 2
      m_TileIndex: 15
      m_TileSpriteIndex: 1
      m_TileMatrixIndex: 0
      m_TileColorIndex: 0
      m_TileObjectToInstantiateIndex: 65535
      m_AllTileFlags: 1073741825
  - first: {x: 3, y: -3, z: 0}
    second:
      serializedVersion: 2
      m_TileIndex: 16
      m_TileSpriteIndex: 15
      m_TileMatrixIndex: 0
      m_TileColorIndex: 0
      m_TileObjectToInstantiateIndex: 65535
      m_AllTileFlags: 1073741825
  - first: {x: 5, y: -3, z: 0}
    second:
      serializedVersion: 2
      m_TileIndex: 17
      m_TileSpriteIndex: 16
      m_TileMatrixIndex: 0
      m_TileColorIndex: 0
      m_TileObjectToInstantiateIndex: 65535
      m_AllTileFlags: 1073741825
  - first: {x: 6, y: -3, z: 0}
    second:
      serializedVersion: 2
      m_TileIndex: 18
      m_TileSpriteIndex: 17
      m_TileMatrixIndex: 0
      m_TileColorIndex: 0
      m_TileObjectToInstantiateIndex: 65535
      m_AllTileFlags: 1073741825
  - first: {x: 1, y: -2, z: 0}
    second:
      serializedVersion: 2
      m_TileIndex: 9
      m_TileSpriteIndex: 9
      m_TileMatrixIndex: 0
      m_TileColorIndex: 0
      m_TileObjectToInstantiateIndex: 65535
      m_AllTileFlags: 1073741825
  - first: {x: 2, y: -2, z: 0}
    second:
      serializedVersion: 2
      m_TileIndex: 10
      m_TileSpriteIndex: 10
      m_TileMatrixIndex: 0
      m_TileColorIndex: 0
      m_TileObjectToInstantiateIndex: 65535
      m_AllTileFlags: 1073741825
  - first: {x: 3, y: -2, z: 0}
    second:
      serializedVersion: 2
      m_TileIndex: 11
      m_TileSpriteIndex: 11
      m_TileMatrixIndex: 0
      m_TileColorIndex: 0
      m_TileObjectToInstantiateIndex: 65535
      m_AllTileFlags: 1073741825
  - first: {x: 5, y: -2, z: 0}
    second:
      serializedVersion: 2
      m_TileIndex: 12
      m_TileSpriteIndex: 12
      m_TileMatrixIndex: 0
      m_TileColorIndex: 0
      m_TileObjectToInstantiateIndex: 65535
      m_AllTileFlags: 1073741825
  - first: {x: 6, y: -2, z: 0}
    second:
      serializedVersion: 2
      m_TileIndex: 13
      m_TileSpriteIndex: 13
      m_TileMatrixIndex: 0
      m_TileColorIndex: 0
      m_TileObjectToInstantiateIndex: 65535
      m_AllTileFlags: 1073741825
  - first: {x: 1, y: -1, z: 0}
    second:
      serializedVersion: 2
      m_TileIndex: 5
      m_TileSpriteIndex: 5
      m_TileMatrixIndex: 0
      m_TileColorIndex: 0
      m_TileObjectToInstantiateIndex: 65535
      m_AllTileFlags: 1073741825
  - first: {x: 2, y: -1, z: 0}
    second:
      serializedVersion: 2
      m_TileIndex: 6
      m_TileSpriteIndex: 6
      m_TileMatrixIndex: 0
      m_TileColorIndex: 0
      m_TileObjectToInstantiateIndex: 65535
      m_AllTileFlags: 1073741825
  - first: {x: 3, y: -1, z: 0}
    second:
      serializedVersion: 2
      m_TileIndex: 7
      m_TileSpriteIndex: 7
      m_TileMatrixIndex: 0
      m_TileColorIndex: 0
      m_TileObjectToInstantiateIndex: 65535
      m_AllTileFlags: 1073741825
  - first: {x: 5, y: -1, z: 0}
    second:
      serializedVersion: 2
      m_TileIndex: 8
      m_TileSpriteIndex: 8
      m_TileMatrixIndex: 0
      m_TileColorIndex: 0
      m_TileObjectToInstantiateIndex: 65535
      m_AllTileFlags: 1073741825
  - first: {x: 0, y: 0, z: 0}
    second:
      serializedVersion: 2
      m_TileIndex: 24
      m_TileSpriteIndex: 23
      m_TileMatrixIndex: 0
      m_TileColorIndex: 0
      m_TileObjectToInstantiateIndex: 65535
      m_AllTileFlags: 1073741825
  - first: {x: 1, y: 0, z: 0}
    second:
      serializedVersion: 2
      m_TileIndex: 2
      m_TileSpriteIndex: 35
      m_TileMatrixIndex: 0
      m_TileColorIndex: 0
      m_TileObjectToInstantiateIndex: 65535
      m_AllTileFlags: 1073741825
  - first: {x: 2, y: 0, z: 0}
    second:
      serializedVersion: 2
      m_TileIndex: 24
      m_TileSpriteIndex: 23
      m_TileMatrixIndex: 0
      m_TileColorIndex: 0
      m_TileObjectToInstantiateIndex: 65535
      m_AllTileFlags: 1073741825
  - first: {x: 3, y: 0, z: 0}
    second:
      serializedVersion: 2
      m_TileIndex: 3
      m_TileSpriteIndex: 3
      m_TileMatrixIndex: 0
      m_TileColorIndex: 0
      m_TileObjectToInstantiateIndex: 65535
      m_AllTileFlags: 1073741825
  - first: {x: 5, y: 0, z: 0}
    second:
      serializedVersion: 2
      m_TileIndex: 4
      m_TileSpriteIndex: 4
      m_TileMatrixIndex: 0
      m_TileColorIndex: 0
      m_TileObjectToInstantiateIndex: 65535
      m_AllTileFlags: 1073741825
  - first: {x: 0, y: 1, z: 0}
    second:
      serializedVersion: 2
      m_TileIndex: 24
      m_TileSpriteIndex: 23
      m_TileMatrixIndex: 0
      m_TileColorIndex: 0
      m_TileObjectToInstantiateIndex: 65535
      m_AllTileFlags: 1073741825
  - first: {x: 2, y: 1, z: 0}
    second:
      serializedVersion: 2
      m_TileIndex: 24
      m_TileSpriteIndex: 23
      m_TileMatrixIndex: 0
      m_TileColorIndex: 0
      m_TileObjectToInstantiateIndex: 65535
      m_AllTileFlags: 1073741825
  - first: {x: 3, y: 1, z: 0}
    second:
      serializedVersion: 2
      m_TileIndex: 1
      m_TileSpriteIndex: 11
      m_TileMatrixIndex: 0
      m_TileColorIndex: 0
      m_TileObjectToInstantiateIndex: 65535
      m_AllTileFlags: 1073741826
  m_AnimatedTiles: {}
  m_TileAssetArray:
  - m_RefCount: 0
    m_Data: {fileID: 0}
  - m_RefCount: 1
    m_Data: {fileID: 11400000, guid: 7e7688415217b8d4ca6c00b32b5f0560, type: 2}
  - m_RefCount: 1
    m_Data: {fileID: 11400000, guid: 6aea85d7f31e90342a3df55a968b8662, type: 2}
  - m_RefCount: 1
    m_Data: {fileID: 11400000, guid: f2dbc4d4c9ac3d048b7c5923cf90109d, type: 2}
  - m_RefCount: 1
    m_Data: {fileID: 11400000, guid: 499a7f19af5bf8f408cbee80e839ddbe, type: 2}
  - m_RefCount: 1
    m_Data: {fileID: 11400000, guid: 55eb6a9d65a18a9488344eead13e746f, type: 2}
  - m_RefCount: 1
    m_Data: {fileID: 11400000, guid: caf437a889d84a0489b86a403bb45694, type: 2}
  - m_RefCount: 1
    m_Data: {fileID: 11400000, guid: 237913a11d1fbb84c934c8e4febb3aee, type: 2}
  - m_RefCount: 1
    m_Data: {fileID: 11400000, guid: 2137150c9592fab4ca8ef9eb60364f75, type: 2}
  - m_RefCount: 1
    m_Data: {fileID: 11400000, guid: 1765c01654deacc4b820e3bfbf6c61f3, type: 2}
  - m_RefCount: 1
    m_Data: {fileID: 11400000, guid: f6c5b222a095f774db64fca4320be334, type: 2}
  - m_RefCount: 1
    m_Data: {fileID: 11400000, guid: 97c419dc3217c9e4ba63a7b98f02d407, type: 2}
  - m_RefCount: 1
    m_Data: {fileID: 11400000, guid: bed79a880513efc47a4998efc6c77226, type: 2}
  - m_RefCount: 1
    m_Data: {fileID: 11400000, guid: b2ccdbfbef4831c48ad1d901687c4601, type: 2}
  - m_RefCount: 1
    m_Data: {fileID: 11400000, guid: 61b3f6aadf1f31e4a983cde6fd624ee8, type: 2}
  - m_RefCount: 1
    m_Data: {fileID: 11400000, guid: 19ef364e2777e02459be47488b3e15b3, type: 2}
  - m_RefCount: 1
    m_Data: {fileID: 11400000, guid: 192cbc66f8b9d254d8be4d3c11a11c3f, type: 2}
  - m_RefCount: 1
    m_Data: {fileID: 11400000, guid: 6d9b7b3fb05f97b40aae921e5f554c58, type: 2}
  - m_RefCount: 1
    m_Data: {fileID: 11400000, guid: f2915a132da8b434ebfb3c152ed10da2, type: 2}
  - m_RefCount: 1
    m_Data: {fileID: 11400000, guid: 4bd96053cb9d2b242b05cb5dbfd72683, type: 2}
  - m_RefCount: 1
    m_Data: {fileID: 11400000, guid: 52fd404d6d063be49894613131a4e65b, type: 2}
  - m_RefCount: 1
    m_Data: {fileID: 11400000, guid: e71ff6d7babf87f4db560058fbf5b9eb, type: 2}
  - m_RefCount: 1
    m_Data: {fileID: 11400000, guid: 573013b99cde60f40a3e8c33580fc155, type: 2}
  - m_RefCount: 1
    m_Data: {fileID: 11400000, guid: bc126c5525c357646a9aae7d0c400780, type: 2}
  - m_RefCount: 5
    m_Data: {fileID: 11400000, guid: 9243b45292274854092657f2066cc4b3, type: 2}
  - m_RefCount: 1
    m_Data: {fileID: 11400000, guid: 44f6fe487a4c93c43bbce986496dcf81, type: 2}
  - m_RefCount: 1
    m_Data: {fileID: 11400000, guid: b4f7422b31d93034aad6d1ab2aa123e9, type: 2}
  - m_RefCount: 1
    m_Data: {fileID: 11400000, guid: dde205285262a764d8d7eb7628936d9d, type: 2}
  - m_RefCount: 1
    m_Data: {fileID: 11400000, guid: 82aede03e3c83694f8380758408a7b37, type: 2}
  - m_RefCount: 1
    m_Data: {fileID: 11400000, guid: 129667e8f97b40546ab429e7f7e382c8, type: 2}
  - m_RefCount: 1
    m_Data: {fileID: 11400000, guid: 98d474411b677d343a9911a437db6e67, type: 2}
  - m_RefCount: 1
    m_Data: {fileID: 11400000, guid: ed12d6240d3e6d94f896c27fe39e4325, type: 2}
  - m_RefCount: 1
    m_Data: {fileID: 11400000, guid: bb404aabcc05b544f89d7c85cab73ccd, type: 2}
  - m_RefCount: 1
    m_Data: {fileID: 11400000, guid: 85929400fe1b72949966a67c770145cd, type: 2}
  - m_RefCount: 1
    m_Data: {fileID: 11400000, guid: 51bc9d3b59a230546976d6e833856b0c, type: 2}
  - m_RefCount: 1
    m_Data: {fileID: 11400000, guid: 34ae291b8705280459b9529c475b12a6, type: 2}
  m_TileSpriteArray:
  - m_RefCount: 1
    m_Data: {fileID: 9042399528698093085, guid: b07f31d85ee5aa5489101ca4f684ee46,
      type: 3}
  - m_RefCount: 1
    m_Data: {fileID: 7478008257106083343, guid: b07f31d85ee5aa5489101ca4f684ee46,
      type: 3}
  - m_RefCount: 0
    m_Data: {fileID: 0}
  - m_RefCount: 1
    m_Data: {fileID: -4081895836861400227, guid: b07f31d85ee5aa5489101ca4f684ee46,
      type: 3}
  - m_RefCount: 1
    m_Data: {fileID: -2267043328795130786, guid: b07f31d85ee5aa5489101ca4f684ee46,
      type: 3}
  - m_RefCount: 1
    m_Data: {fileID: 5979774282219718861, guid: b07f31d85ee5aa5489101ca4f684ee46,
      type: 3}
  - m_RefCount: 1
    m_Data: {fileID: 8204838427734672938, guid: b07f31d85ee5aa5489101ca4f684ee46,
      type: 3}
  - m_RefCount: 1
    m_Data: {fileID: 8975720719472535112, guid: b07f31d85ee5aa5489101ca4f684ee46,
      type: 3}
  - m_RefCount: 1
    m_Data: {fileID: -2044306513692527731, guid: b07f31d85ee5aa5489101ca4f684ee46,
      type: 3}
  - m_RefCount: 1
    m_Data: {fileID: -7744491813218655595, guid: b07f31d85ee5aa5489101ca4f684ee46,
      type: 3}
  - m_RefCount: 1
    m_Data: {fileID: -9029567452541619331, guid: b07f31d85ee5aa5489101ca4f684ee46,
      type: 3}
  - m_RefCount: 2
    m_Data: {fileID: 868678923422508900, guid: b07f31d85ee5aa5489101ca4f684ee46, type: 3}
  - m_RefCount: 1
    m_Data: {fileID: 7184450174720710477, guid: b07f31d85ee5aa5489101ca4f684ee46,
      type: 3}
  - m_RefCount: 1
    m_Data: {fileID: 3862517793049443740, guid: b07f31d85ee5aa5489101ca4f684ee46,
      type: 3}
  - m_RefCount: 1
    m_Data: {fileID: 972234078244752905, guid: b07f31d85ee5aa5489101ca4f684ee46, type: 3}
  - m_RefCount: 1
    m_Data: {fileID: 2293209681093925570, guid: b07f31d85ee5aa5489101ca4f684ee46,
      type: 3}
  - m_RefCount: 1
    m_Data: {fileID: 2614862397769903252, guid: b07f31d85ee5aa5489101ca4f684ee46,
      type: 3}
  - m_RefCount: 1
    m_Data: {fileID: 5622797454464015859, guid: b07f31d85ee5aa5489101ca4f684ee46,
      type: 3}
  - m_RefCount: 1
    m_Data: {fileID: 7521863188413405580, guid: b07f31d85ee5aa5489101ca4f684ee46,
      type: 3}
  - m_RefCount: 1
    m_Data: {fileID: 3036971418042480594, guid: b07f31d85ee5aa5489101ca4f684ee46,
      type: 3}
  - m_RefCount: 1
    m_Data: {fileID: -7577385431394486313, guid: b07f31d85ee5aa5489101ca4f684ee46,
      type: 3}
  - m_RefCount: 1
    m_Data: {fileID: 6606422843432234558, guid: b07f31d85ee5aa5489101ca4f684ee46,
      type: 3}
  - m_RefCount: 1
    m_Data: {fileID: -2849571417658334371, guid: b07f31d85ee5aa5489101ca4f684ee46,
      type: 3}
  - m_RefCount: 5
    m_Data: {fileID: 1208167485925313201, guid: b07f31d85ee5aa5489101ca4f684ee46,
      type: 3}
  - m_RefCount: 1
    m_Data: {fileID: -7581579774450493931, guid: b07f31d85ee5aa5489101ca4f684ee46,
      type: 3}
  - m_RefCount: 1
    m_Data: {fileID: 7616815687673310550, guid: b07f31d85ee5aa5489101ca4f684ee46,
      type: 3}
  - m_RefCount: 1
    m_Data: {fileID: -3657835138297705479, guid: b07f31d85ee5aa5489101ca4f684ee46,
      type: 3}
  - m_RefCount: 1
    m_Data: {fileID: 2325352917403241883, guid: b07f31d85ee5aa5489101ca4f684ee46,
      type: 3}
  - m_RefCount: 1
    m_Data: {fileID: 5719648210379007741, guid: b07f31d85ee5aa5489101ca4f684ee46,
      type: 3}
  - m_RefCount: 1
    m_Data: {fileID: 2923855432635573093, guid: b07f31d85ee5aa5489101ca4f684ee46,
      type: 3}
  - m_RefCount: 1
    m_Data: {fileID: 6535006889272096833, guid: b07f31d85ee5aa5489101ca4f684ee46,
      type: 3}
  - m_RefCount: 1
    m_Data: {fileID: 8875673615263515023, guid: b07f31d85ee5aa5489101ca4f684ee46,
      type: 3}
  - m_RefCount: 1
    m_Data: {fileID: -4473695786133923359, guid: b07f31d85ee5aa5489101ca4f684ee46,
      type: 3}
  - m_RefCount: 1
    m_Data: {fileID: 9178963057058429600, guid: b07f31d85ee5aa5489101ca4f684ee46,
      type: 3}
  - m_RefCount: 0
    m_Data: {fileID: 0}
  - m_RefCount: 1
    m_Data: {fileID: -5197404998654470218, guid: b07f31d85ee5aa5489101ca4f684ee46,
      type: 3}
  m_TileMatrixArray:
  - m_RefCount: 39
    m_Data:
      e00: 1
      e01: 0
      e02: 0
      e03: 0
      e10: 0
      e11: 1
      e12: 0
      e13: 0
      e20: 0
      e21: 0
      e22: 1
      e23: 0
      e30: 0
      e31: 0
      e32: 0
      e33: 1
  m_TileColorArray:
  - m_RefCount: 39
    m_Data: {r: 1, g: 1, b: 1, a: 1}
  - m_RefCount: 0
    m_Data: {r: 0, g: 0, b: 0, a: 0}
  - m_RefCount: 0
    m_Data: {r: 0, g: 0, b: 0, a: 0}
  m_TileObjectToInstantiateArray: []
  m_AnimationFrameRate: 1
  m_Color: {r: 1, g: 1, b: 1, a: 1}
  m_Origin: {x: 0, y: -6, z: 0}
  m_Size: {x: 7, y: 8, z: 1}
  m_TileAnchor: {x: 0.5, y: 0.5, z: 0}
  m_TileOrientation: 0
  m_TileOrientationMatrix:
    e00: 1
    e01: 0
    e02: 0
    e03: 0
    e10: 0
    e11: 1
    e12: 0
    e13: 0
    e20: 0
    e21: 0
    e22: 1
    e23: 0
    e30: 0
    e31: 0
    e32: 0
    e33: 1
--- !u!483693784 &8621029489669528555
TilemapRenderer:
  m_ObjectHideFlags: 0
  m_CorrespondingSourceObject: {fileID: 0}
  m_PrefabInstance: {fileID: 0}
  m_PrefabAsset: {fileID: 0}
  m_GameObject: {fileID: 5032129711650427306}
  m_Enabled: 0
  m_CastShadows: 0
  m_ReceiveShadows: 0
  m_DynamicOccludee: 0
  m_MotionVectors: 1
  m_LightProbeUsage: 0
  m_ReflectionProbeUsage: 0
  m_RayTracingMode: 0
  m_RenderingLayerMask: 1
  m_RendererPriority: 0
  m_Materials:
  - {fileID: 2100000, guid: a97c105638bdf8b4a8650670310a4cd3, type: 2}
  m_StaticBatchInfo:
    firstSubMesh: 0
    subMeshCount: 0
  m_StaticBatchRoot: {fileID: 0}
  m_ProbeAnchor: {fileID: 0}
  m_LightProbeVolumeOverride: {fileID: 0}
  m_ScaleInLightmap: 1
  m_ReceiveGI: 1
  m_PreserveUVs: 0
  m_IgnoreNormalsForChartDetection: 0
  m_ImportantGI: 0
  m_StitchLightmapSeams: 1
  m_SelectedEditorRenderState: 0
  m_MinimumChartSize: 4
  m_AutoUVMaxDistance: 0.5
  m_AutoUVMaxAngle: 89
  m_LightmapParameters: {fileID: 0}
  m_SortingLayerID: 0
  m_SortingLayer: 0
  m_SortingOrder: 0
  m_ChunkSize: {x: 32, y: 32, z: 32}
  m_ChunkCullingBounds: {x: 0, y: 0, z: 0}
  m_MaxChunkCount: 16
  m_MaxFrameAge: 16
  m_SortOrder: 0
  m_Mode: 0
  m_DetectChunkCullingBounds: 0
  m_MaskInteraction: 0
--- !u!114 &-469202503708506891
MonoBehaviour:
  m_ObjectHideFlags: 0
  m_CorrespondingSourceObject: {fileID: 0}
  m_PrefabInstance: {fileID: 0}
  m_PrefabAsset: {fileID: 0}
  m_GameObject: {fileID: 0}
  m_Enabled: 1
  m_EditorHideFlags: 0
  m_Script: {fileID: 12395, guid: 0000000000000000e000000000000000, type: 0}
  m_Name: Palette Settings
  m_EditorClassIdentifier: 
  cellSizing: 0
